com\insurance\repository\ClaimRepository.class
com\insurance\exception\MyApplicationException.class
com\insurance\model\UserDependents.class
com\insurance\controller\UnderwriterController.class
com\insurance\model\Role.class
com\insurance\repository\UserRepository.class
com\insurance\service\SchedulerService.class
com\insurance\service\UserService.class
com\insurance\model\enums\Status.class
com\insurance\controller\TokenController.class
com\insurance\model\UsersPolicy.class
com\insurance\service\UnderwriterService.class
com\insurance\exception\CustomException.class
com\insurance\service\AdminService.class
com\insurance\config\CustomUserDetails.class
com\insurance\filters\JwtRequestFilter.class
com\insurance\model\dto\SoldPolicyStatus.class
com\insurance\model\AuthenticationRequest.class
com\insurance\model\enums\Gender.class
com\insurance\model\enums\Category.class
com\insurance\controller\AdminController.class
com\insurance\controller\UserController.class
com\insurance\util\JwtUtil.class
com\insurance\model\Claim.class
com\insurance\exception\MyApplicationExceptionHandler.class
com\insurance\model\Policy.class
com\insurance\config\CorsConfig$1.class
com\insurance\repository\PolicyRepository.class
com\insurance\repository\DependentsRepository.class
com\insurance\InsuranceApplication.class
com\insurance\model\User.class
com\insurance\model\Nominee.class
com\insurance\model\AuthenticationResponse.class
com\insurance\repository\NomineeRepository.class
com\insurance\repository\UsersPolicyRepository.class
com\insurance\config\CorsConfig.class
com\insurance\config\SecurityConfiguration.class
com\insurance\config\UserDetailsServiceImpl.class
